1.wav,"On the right."
2.wav,"On the right."
3.wav,"Car on the right."
4.wav,"Car on the right!"
5.wav,"On the right."
6.wav,"Right side! Right side!"
7.wav,"Car on the right."
8.wav,"On the right."
9_male.wav,"He's on the right."
10.wav,"On the right."
11.wav,"Right side!"
12.wav,"Car right."
13.wav,"Right! Right! Right!"