1.wav,Clear outside.
2.wav,Clear outside!
3.wav,Clear to the outside.
4.wav,Outside's clear!
5.wav,Outside's clear.
6.wav,Clear to the outside!
7.wav,Clear outside!
8.wav,Clear up!
9.wav,Clear to the top!
10.wav,Clear up top!
11.wav,You're clear up top.