[
  {
    "track_dirpath": "limerock\\full",
    "track_id": 1,
    "start_on_left": false,
    "restart_on_left": false
  },
  {
    "track_dirpath": "virginia\\full",
    "track_id": 2,
    "start_on_left": false,
    "restart_on_left": false
  },
  {
    "track_dirpath": "virginia\\patriot",
    "track_id": 3,
    "start_on_left": false,
    "restart_on_left": false
  },
  {
    "track_dirpath": "virginia\\north",
    "track_id": 4,
    "start_on_left": false,
    "restart_on_left": false
  },
  {
    "track_dirpath": "virginia\\east",
    "track_id": 5,
    "start_on_left": false,
    "restart_on_left": false
  },
  {
    "track_dirpath": "virginia\\west",
    "track_id": 6,
    "start_on_left": false,
    "restart_on_left": false
  },
  {
    "track_dirpath": "virginia\\south",
    "track_id": 7,
    "start_on_left": false,
    "restart_on_left": false
  },
  {
    "track_dirpath": "summit\\jefferson",
    "track_id": 8,
    "start_on_left": false,
    "restart_on_left": false
  },
  {
    "track_dirpath": "summit\\summit\\raceway",
    "track_id": 9,
    "start_on_left": false,
    "restart_on_left": false
  },
  {
    "track_dirpath": "stafford\\oval",
    "track_id": 11,
    "start_on_left": true,
    "restart_on_left": true
  },
  {
    "track_dirpath": "oxford\\oval",
    "track_id": 12,
    "start_on_left": true,
    "restart_on_left": true
  },
  {
    "track_dirpath": "southboston",
    "track_id": 14,
    "start_on_left": true,
    "restart_on_left": true
  },
  {
    "track_dirpath": "concordhalf",
    "track_id": 15,
    "start_on_left": true,
    "restart_on_left": true
  },
  {
    "track_dirpath": "lakeland",
    "track_id": 16,
    "start_on_left": true,
    "restart_on_left": true
  },
  {
    "track_dirpath": "lanier",
    "track_id": 17,
    "start_on_left": true,
    "restart_on_left": true
  },
  {
    "track_dirpath": "roadamerica\\full",
    "track_id": 18,
    "start_on_left": false,
    "restart_on_left": false
  },
  {
    "track_dirpath": "irwindale\\inner",
    "track_id": 19,
    "start_on_left": true,
    "restart_on_left": true
  },
  {
    "track_dirpath": "homestead\\oval",
    "track_id": 20,
    "start_on_left": true,
    "restart_on_left": false
  },
  {
    "track_dirpath": "homestead\\roada",
    "track_id": 21,
    "start_on_left": true,
    "restart_on_left": true
  },
  {
    "track_dirpath": "homestead\\roadb",
    "track_id": 22,
    "start_on_left": true,
    "restart_on_left": true
  },
  {
    "track_dirpath": "irwindale\\outer",
    "track_id": 23,
    "start_on_left": true,
    "restart_on_left": true
  },
  {
    "track_dirpath": "summit\\summit\\short",
    "track_id": 24,
    "start_on_left": false,
    "restart_on_left": false
  },
  {
    "track_dirpath": "daytona\\road",
    "track_id": 26,
    "start_on_left": true,
    "restart_on_left": false
  },
  {
    "track_dirpath": "daytona\\oval",
    "track_id": 27,
    "start_on_left": true,
    "restart_on_left": true
  },
  {
    "track_dirpath": "daytona\\bike",
    "track_id": 28,
    "start_on_left": true,
    "restart_on_left": false
  },
  {
    "track_dirpath": "daytona\\short",
    "track_id": 29,
    "start_on_left": true,
    "restart_on_left": false
  },
  {
    "track_dirpath": "irwindale\\outerinner",
    "track_id": 30,
    "start_on_left": true,
    "restart_on_left": true
  },
  {
    "track_dirpath": "richmond",
    "track_id": 31,
    "start_on_left": true,
    "restart_on_left": true
  },
  {
    "track_dirpath": "martinsville",
    "track_id": 33,
    "start_on_left": true,
    "restart_on_left": true
  },
  {
    "track_dirpath": "limerock\\chicane",
    "track_id": 34,
    "start_on_left": false,
    "restart_on_left": false
  },
  {
    "track_dirpath": "charlotte\\fullroadcourse",
    "track_id": 37,
    "start_on_left": true,
    "restart_on_left": true
  },
  {
    "track_dirpath": "charlotte\\infieldrc",
    "track_id": 38,
    "start_on_left": true,
    "restart_on_left": true
  },
  {
    "track_dirpath": "charlotte\\legendsoval",
    "track_id": 39,
    "start_on_left": true,
    "restart_on_left": true
  },
  {
    "track_dirpath": "charlotte\\quadoval",
    "track_id": 40,
    "start_on_left": true,
    "restart_on_left": true
  },
  {
    "track_dirpath": "silverstone\\gp",
    "track_id": 41,
    "start_on_left": false,
    "restart_on_left": false
  },
  {
    "track_dirpath": "silverstone\\historicgp",
    "track_id": 42,
    "start_on_left": false,
    "restart_on_left": false
  },
  {
    "track_dirpath": "silverstone\\international",
    "track_id": 43,
    "start_on_left": false,
    "restart_on_left": false
  },
  {
    "track_dirpath": "silverstone\\national",
    "track_id": 44,
    "start_on_left": false,
    "restart_on_left": false
  },
  {
    "track_dirpath": "silverstone\\southern",
    "track_id": 45,
    "start_on_left": true,
    "restart_on_left": true
  },
  {
    "track_dirpath": "barber\\full",
    "track_id": 46,
    "start_on_left": true,
    "restart_on_left": true
  },
  {
    "track_dirpath": "lagunaseca",
    "track_id": 47,
    "start_on_left": true,
    "restart_on_left": true
  },
  {
    "track_dirpath": "sonoma\\cup",
    "track_id": 48,
    "start_on_left": true,
    "restart_on_left": true
  },
  {
    "track_dirpath": "sonoma\\irl",
    "track_id": 49,
    "start_on_left": true,
    "restart_on_left": true
  },
  {
    "track_dirpath": "roadamerica\\bend",
    "track_id": 50,
    "start_on_left": false,
    "restart_on_left": false
  },
  {
    "track_dirpath": "atlanta\\roadcourse",
    "track_id": 51,
    "start_on_left": true,
    "restart_on_left": true
  },
  {
    "track_dirpath": "atlanta\\legendsoval",
    "track_id": 52,
    "start_on_left": true,
    "restart_on_left": true
  },
  {
    "track_dirpath": "atlanta\\quadoval",
    "track_id": 53,
    "start_on_left": true,
    "restart_on_left": true
  },
  {
    "track_dirpath": "milwaukee",
    "track_id": 94,
    "start_on_left": true,
    "restart_on_left": true
  },
  {
    "track_dirpath": "sebring\\international",
    "track_id": 95,
    "start_on_left": true,
    "restart_on_left": true
  },
  {
    "track_dirpath": "sebring\\modified",
    "track_id": 96,
    "start_on_left": true,
    "restart_on_left": true
  },
  {
    "track_dirpath": "sebring\\club",
    "track_id": 97,
    "start_on_left": true,
    "restart_on_left": true
  },
  {
    "track_dirpath": "sonoma\\long",
    "track_id": 98,
    "start_on_left": true,
    "restart_on_left": true
  },
  {
    "track_dirpath": "barber\\shorta",
    "track_id": 99,
    "start_on_left": true,
    "restart_on_left": true
  },
  {
    "track_dirpath": "barber\\shortb",
    "track_id": 100,
    "start_on_left": true,
    "restart_on_left": true
  },
  {
    "track_dirpath": "bristol",
    "track_id": 101,
    "start_on_left": true,
    "restart_on_left": true
  },
  {
    "track_dirpath": "sonoma\\irl2",
    "track_id": 102,
    "start_on_left": true,
    "restart_on_left": true
  },
  {
    "track_dirpath": "vegas\\oval",
    "track_id": 103,
    "start_on_left": true,
    "restart_on_left": true
  },
  {
    "track_dirpath": "phoenix\\oval",
    "track_id": 104,
    "start_on_left": true,
    "restart_on_left": true
  },
  {
    "track_dirpath": "phoenix\\road",
    "track_id": 105,
    "start_on_left": true,
    "restart_on_left": true
  },
  {
    "track_dirpath": "watkinsglen\\cupcircuit",
    "track_id": 106,
    "start_on_left": false,
    "restart_on_left": false
  },
  {
    "track_dirpath": "watkinsglen\\fullcourse",
    "track_id": 107,
    "start_on_left": false,
    "restart_on_left": false
  },
  {
    "track_dirpath": "watkinsglen\\fullnoloop",
    "track_id": 108,
    "start_on_left": false,
    "restart_on_left": false
  },
  {
    "track_dirpath": "watkinsglen\\classic",
    "track_id": 109,
    "start_on_left": false,
    "restart_on_left": false
  },
  {
    "track_dirpath": "vegas\\legends",
    "track_id": 110,
    "start_on_left": true,
    "restart_on_left": true
  },
  {
    "track_dirpath": "vegas\\roadlong",
    "track_id": 111,
    "start_on_left": false,
    "restart_on_left": false
  },
  {
    "track_dirpath": "vegas\\roadshort",
    "track_id": 112,
    "start_on_left": false,
    "restart_on_left": false
  },
  {
    "track_dirpath": "vegas\\inflegends",
    "track_id": 113,
    "start_on_left": true,
    "restart_on_left": true
  },
  {
    "track_dirpath": "vegas\\roadcombined",
    "track_id": 114,
    "start_on_left": false,
    "restart_on_left": false
  },
  {
    "track_dirpath": "darlington",
    "track_id": 115,
    "start_on_left": true,
    "restart_on_left": true
  },
  {
    "track_dirpath": "talladega",
    "track_id": 116,
    "start_on_left": true,
    "restart_on_left": true
  },
  {
    "track_dirpath": "texas\\infieldrclong",
    "track_id": 117,
    "start_on_left": false,
    "restart_on_left": false
  },
  {
    "track_dirpath": "texas\\infieldrcshorta",
    "track_id": 118,
    "start_on_left": false,
    "restart_on_left": false
  },
  {
    "track_dirpath": "texas\\infieldrcshortb",
    "track_id": 119,
    "start_on_left": false,
    "restart_on_left": false
  },
  {
    "track_dirpath": "texas\\legendsoval",
    "track_id": 120,
    "start_on_left": true,
    "restart_on_left": true
  },
  {
    "track_dirpath": "texas\\oval",
    "track_id": 121,
    "start_on_left": true,
    "restart_on_left": true
  },
  {
    "track_dirpath": "texas\\roadcourse",
    "track_id": 122,
    "start_on_left": true,
    "restart_on_left": true
  },
  {
    "track_dirpath": "chicagoland",
    "track_id": 123,
    "start_on_left": true,
    "restart_on_left": true
  },
  {
    "track_dirpath": "michigan",
    "track_id": 124,
    "start_on_left": true,
    "restart_on_left": true
  },
  {
    "track_dirpath": "roadatlanta\\club",
    "track_id": 126,
    "start_on_left": false,
    "restart_on_left": false
  },
  {
    "track_dirpath": "roadatlanta\\full",
    "track_id": 127,
    "start_on_left": false,
    "restart_on_left": false
  },
  {
    "track_dirpath": "roadatlanta\\short",
    "track_id": 128,
    "start_on_left": false,
    "restart_on_left": false
  },
  {
    "track_dirpath": "newhampshire\\chicane",
    "track_id": 129,
    "start_on_left": true,
    "restart_on_left": true
  },
  {
    "track_dirpath": "newhampshire\\northoval",
    "track_id": 130,
    "start_on_left": true,
    "restart_on_left": true
  },
  {
    "track_dirpath": "newhampshire\\oval",
    "track_id": 131,
    "start_on_left": true,
    "restart_on_left": true
  },
  {
    "track_dirpath": "newhampshire\\southoval",
    "track_id": 132,
    "start_on_left": true,
    "restart_on_left": true
  },
  {
    "track_dirpath": "indianapolis\\oval",
    "track_id": 133,
    "start_on_left": true,
    "restart_on_left": true
  },
  {
    "track_dirpath": "indianapolis\\road",
    "track_id": 134,
    "start_on_left": true,
    "restart_on_left": true
  },
  {
    "track_dirpath": "indianapolis\\motogp",
    "track_id": 135,
    "start_on_left": true,
    "restart_on_left": true
  },
  {
    "track_dirpath": "pocono\\oval",
    "track_id": 136,
    "start_on_left": true,
    "restart_on_left": true
  },
  {
    "track_dirpath": "pocono\\east",
    "track_id": 137,
    "start_on_left": true,
    "restart_on_left": true
  },
  {
    "track_dirpath": "pocono\\south",
    "track_id": 138,
    "start_on_left": true,
    "restart_on_left": true
  },
  {
    "track_dirpath": "pocono\\north",
    "track_id": 139,
    "start_on_left": false,
    "restart_on_left": false
  },
  {
    "track_dirpath": "pocono\\international",
    "track_id": 140,
    "start_on_left": true,
    "restart_on_left": true
  },
  {
    "track_dirpath": "virginia\\patriot\\rev",
    "track_id": 141,
    "start_on_left": false,
    "restart_on_left": false
  },
  {
    "track_dirpath": "summit\\jefferson\\rev",
    "track_id": 142,
    "start_on_left": false,
    "restart_on_left": false
  },
  {
    "track_dirpath": "skidpad",
    "track_id": 143,
    "start_on_left": true,
    "restart_on_left": true
  },
  {
    "track_dirpath": "mosport",
    "track_id": 144,
    "start_on_left": false,
    "restart_on_left": false
  },
  {
    "track_dirpath": "brandshatch\\grandprix",
    "track_id": 145,
    "start_on_left": false,
    "restart_on_left": false
  },
  {
    "track_dirpath": "brandshatch\\indy",
    "track_id": 146,
    "start_on_left": false,
    "restart_on_left": false
  },
  {
    "track_dirpath": "zandvoort\\chicane",
    "track_id": 147,
    "start_on_left": false,
    "restart_on_left": false
  },
  {
    "track_dirpath": "zandvoort\\club",
    "track_id": 148,
    "start_on_left": false,
    "restart_on_left": false
  },
  {
    "track_dirpath": "zandvoort\\grandprix",
    "track_id": 149,
    "start_on_left": false,
    "restart_on_left": false
  },
  {
    "track_dirpath": "zandvoort\\national",
    "track_id": 150,
    "start_on_left": false,
    "restart_on_left": false
  },
  {
    "track_dirpath": "zandvoort\\oostelijk",
    "track_id": 151,
    "start_on_left": false,
    "restart_on_left": false
  },
  {
    "track_dirpath": "phillipisland",
    "track_id": 152,
    "start_on_left": true,
    "restart_on_left": false
  },
  {
    "track_dirpath": "midohio\\full",
    "track_id": 153,
    "comment": "manual override",
    "start_on_left": true,
    "restart_on_left": false
  },
  {
    "track_dirpath": "midohio\\chicane",
    "track_id": 154,
    "comment": "manual override",
    "start_on_left": true,
    "restart_on_left": false
  },
  {
    "track_dirpath": "midohio\\short",
    "track_id": 155,
    "comment": "manual override",
    "start_on_left": true,
    "restart_on_left": false
  },
  {
    "track_dirpath": "midohio\\oval",
    "track_id": 156,
    "start_on_left": false,
    "restart_on_left": false
  },
  {
    "track_dirpath": "midohio\\altoval",
    "track_id": 157,
    "start_on_left": false,
    "restart_on_left": false
  },
  {
    "track_dirpath": "lagunaseca\\school",
    "track_id": 158,
    "start_on_left": true,
    "restart_on_left": true
  },
  {
    "track_dirpath": "summit\\summit\\raceway\\school",
    "track_id": 159,
    "start_on_left": false,
    "restart_on_left": false
  },
  {
    "track_dirpath": "limerock\\full\\school",
    "track_id": 160,
    "start_on_left": false,
    "restart_on_left": false
  },
  {
    "track_dirpath": "thompson",
    "track_id": 161,
    "start_on_left": true,
    "restart_on_left": true
  },
  {
    "track_dirpath": "dover",
    "track_id": 162,
    "start_on_left": true,
    "restart_on_left": true
  },
  {
    "track_dirpath": "spa\\up",
    "track_id": 163,
    "start_on_left": false,
    "restart_on_left": false
  },
  {
    "track_dirpath": "spa\\low",
    "track_id": 164,
    "start_on_left": false,
    "restart_on_left": false
  },
  {
    "track_dirpath": "spa\\combined",
    "track_id": 165,
    "start_on_left": false,
    "restart_on_left": false
  },
  {
    "track_dirpath": "okayama\\full",
    "track_id": 166,
    "start_on_left": false,
    "restart_on_left": false
  },
  {
    "track_dirpath": "okayama\\short",
    "track_id": 167,
    "start_on_left": false,
    "restart_on_left": false
  },
  {
    "track_dirpath": "suzuka\\grandprix",
    "track_id": 168,
    "start_on_left": false,
    "restart_on_left": false
  },
  {
    "track_dirpath": "iowa\\oval",
    "track_id": 169,
    "start_on_left": true,
    "restart_on_left": true
  },
  {
    "track_dirpath": "iowa\\road",
    "track_id": 170,
    "start_on_left": false,
    "restart_on_left": false
  },
  {
    "track_dirpath": "iowa\\legends",
    "track_id": 171,
    "start_on_left": true,
    "restart_on_left": true
  },
  {
    "track_dirpath": "iowa\\inflegends",
    "track_id": 172,
    "start_on_left": true,
    "restart_on_left": true
  },
  {
    "track_dirpath": "suzuka\\moto",
    "track_id": 173,
    "start_on_left": false,
    "restart_on_left": false
  },
  {
    "track_dirpath": "suzuka\\east",
    "track_id": 174,
    "start_on_left": false,
    "restart_on_left": false
  },
  {
    "track_dirpath": "suzuka\\west",
    "track_id": 175,
    "start_on_left": true,
    "restart_on_left": true
  },
  {
    "track_dirpath": "suzuka\\westchicane",
    "track_id": 176,
    "start_on_left": true,
    "restart_on_left": true
  },
  {
    "track_dirpath": "indianapolis\\ovalindypit",
    "track_id": 178,
    "start_on_left": true,
    "restart_on_left": true
  },
  {
    "track_dirpath": "longbeach",
    "track_id": 179,
    "start_on_left": true,
    "restart_on_left": true
  },
  {
    "track_dirpath": "oulton\\international",
    "track_id": 180,
    "start_on_left": false,
    "restart_on_left": true
  },
  {
    "track_dirpath": "oulton\\fosters",
    "track_id": 181,
    "start_on_left": false,
    "restart_on_left": true
  },
  {
    "track_dirpath": "oulton\\island",
    "track_id": 182,
    "start_on_left": false,
    "restart_on_left": true
  },
  {
    "track_dirpath": "oulton\\intbrittens",
    "track_id": 183,
    "start_on_left": false,
    "restart_on_left": true
  },
  {
    "track_dirpath": "oulton\\inthislop",
    "track_id": 184,
    "start_on_left": false,
    "restart_on_left": true
  },
  {
    "track_dirpath": "oulton\\intnochicane",
    "track_id": 185,
    "start_on_left": false,
    "restart_on_left": true
  },
  {
    "track_dirpath": "oulton\\fosterswithhislop",
    "track_id": 186,
    "start_on_left": false,
    "restart_on_left": false
  },
  {
    "track_dirpath": "oulton\\islandhistoric",
    "track_id": 187,
    "start_on_left": false,
    "restart_on_left": false
  },
  {
    "track_dirpath": "kentucky\\oval",
    "track_id": 188,
    "start_on_left": true,
    "restart_on_left": true
  },
  {
    "track_dirpath": "kentucky\\legend",
    "track_id": 189,
    "start_on_left": true,
    "restart_on_left": true
  },
  {
    "track_dirpath": "newsmyrna",
    "track_id": 190,
    "start_on_left": true,
    "restart_on_left": true
  },
  {
    "track_dirpath": "daytona\\2011\\oval",
    "track_id": 191,
    "start_on_left": true,
    "restart_on_left": true
  },
  {
    "track_dirpath": "daytona\\2011\\road",
    "track_id": 192,
    "start_on_left": true,
    "restart_on_left": false
  },
  {
    "track_dirpath": "daytona\\2011\\bike",
    "track_id": 193,
    "start_on_left": true,
    "restart_on_left": false
  },
  {
    "track_dirpath": "daytona\\2011\\short",
    "track_id": 194,
    "start_on_left": true,
    "restart_on_left": false
  },
  {
    "track_dirpath": "twinring\\fullrc",
    "track_id": 195,
    "start_on_left": true,
    "restart_on_left": true
  },
  {
    "track_dirpath": "twinring\\east",
    "track_id": 196,
    "start_on_left": true,
    "restart_on_left": true
  },
  {
    "track_dirpath": "twinring\\west",
    "track_id": 197,
    "start_on_left": true,
    "restart_on_left": true
  },
  {
    "track_dirpath": "twinring\\oval",
    "track_id": 198,
    "start_on_left": true,
    "restart_on_left": true
  },
  {
    "track_dirpath": "zolder\\gp",
    "track_id": 199,
    "start_on_left": true,
    "restart_on_left": true
  },
  {
    "track_dirpath": "zolder\\alt",
    "track_id": 200,
    "start_on_left": true,
    "restart_on_left": true
  },
  {
    "track_dirpath": "langley",
    "track_id": 201,
    "start_on_left": false,
    "restart_on_left": false
  },
  {
    "track_dirpath": "oran\\gp",
    "track_id": 202,
    "start_on_left": false,
    "restart_on_left": false
  },
  {
    "track_dirpath": "rockingham\\oval",
    "track_id": 203,
    "start_on_left": true,
    "restart_on_left": true
  },
  {
    "track_dirpath": "rockingham\\road",
    "track_id": 204,
    "start_on_left": true,
    "restart_on_left": true
  },
  {
    "track_dirpath": "rockingham\\infroad",
    "track_id": 205,
    "start_on_left": false,
    "restart_on_left": false
  },
  {
    "track_dirpath": "rockingham\\shortroad",
    "track_id": 206,
    "start_on_left": false,
    "restart_on_left": false
  },
  {
    "track_dirpath": "oran\\north",
    "track_id": 207,
    "start_on_left": false,
    "restart_on_left": false
  },
  {
    "track_dirpath": "oran\\south",
    "track_id": 208,
    "start_on_left": false,
    "restart_on_left": false
  },
  {
    "track_dirpath": "oran\\northa",
    "track_id": 209,
    "start_on_left": false,
    "restart_on_left": false
  },
  {
    "track_dirpath": "oran\\northb",
    "track_id": 210,
    "start_on_left": false,
    "restart_on_left": false
  },
  {
    "track_dirpath": "oran\\moto",
    "track_id": 211,
    "start_on_left": false,
    "restart_on_left": false
  },
  {
    "track_dirpath": "interlagos\\gp",
    "comment": "manual override",
    "track_id": 212,
    "start_on_left": true,
    "restart_on_left": false
  },
  {
    "track_dirpath": "interlagos\\moto",
    "comment": "manual override",
    "track_id": 213,
    "start_on_left": true,
    "restart_on_left": false
  },
  {
    "track_dirpath": "kansas\\oval",
    "track_id": 214,
    "start_on_left": true,
    "restart_on_left": true
  },
  {
    "track_dirpath": "kansas\\full",
    "track_id": 215,
    "start_on_left": false,
    "restart_on_left": false
  },
  {
    "track_dirpath": "kansas\\short",
    "track_id": 216,
    "start_on_left": false,
    "restart_on_left": false
  },
  {
    "track_dirpath": "irwindale\\figureeight",
    "track_id": 217,
    "start_on_left": true,
    "restart_on_left": true
  },
  {
    "track_dirpath": "montreal",
    "track_id": 218,
    "start_on_left": true,
    "restart_on_left": true
  },
  {
    "track_dirpath": "bathurst",
    "track_id": 219,
    "start_on_left": true,
    "restart_on_left": true
  },
  {
    "track_dirpath": "newjersey\\full",
    "track_id": 220,
    "start_on_left": false,
    "restart_on_left": false
  },
  {
    "track_dirpath": "newjersey\\chicane",
    "track_id": 221,
    "start_on_left": false,
    "restart_on_left": false
  },
  {
    "track_dirpath": "newhampshire\\legends",
    "track_id": 222,
    "start_on_left": true,
    "restart_on_left": true
  },
  {
    "track_dirpath": "newjersey\\firstchicane",
    "track_id": 223,
    "start_on_left": false,
    "restart_on_left": false
  },
  {
    "track_dirpath": "newjersey\\secondchicane",
    "track_id": 224,
    "start_on_left": false,
    "restart_on_left": false
  },
  {
    "track_dirpath": "california\\oval",
    "track_id": 225,
    "start_on_left": true,
    "restart_on_left": true
  },
  {
    "track_dirpath": "california\\competition",
    "track_id": 226,
    "start_on_left": true,
    "restart_on_left": true
  },
  {
    "track_dirpath": "california\\moto",
    "track_id": 227,
    "start_on_left": true,
    "restart_on_left": true
  },
  {
    "track_dirpath": "california\\interiora",
    "track_id": 228,
    "start_on_left": true,
    "restart_on_left": true
  },
  {
    "track_dirpath": "cota\\gp",
    "track_id": 229,
    "start_on_left": true,
    "restart_on_left": true
  },
  {
    "track_dirpath": "cota\\east",
    "track_id": 230,
    "start_on_left": true,
    "restart_on_left": true
  },
  {
    "track_dirpath": "cota\\west",
    "track_id": 231,
    "start_on_left": true,
    "restart_on_left": true
  },
  {
    "track_dirpath": "irp",
    "track_id": 232,
    "start_on_left": true,
    "restart_on_left": true
  },
  {
    "track_dirpath": "donington\\gp",
    "track_id": 233,
    "start_on_left": true,
    "restart_on_left": true
  },
  {
    "track_dirpath": "donington\\national",
    "track_id": 234,
    "start_on_left": true,
    "restart_on_left": true
  },
  {
    "track_dirpath": "phoenix\\2012\\oval",
    "track_id": 235,
    "start_on_left": true,
    "restart_on_left": true
  },
  {
    "track_dirpath": "phoenix\\2012\\ovalopen",
    "track_id": 236,
    "start_on_left": true,
    "restart_on_left": true
  },
  {
    "track_dirpath": "gateway\\oval",
    "track_id": 237,
    "start_on_left": true,
    "restart_on_left": true
  },
  {
    "track_dirpath": "gateway\\road",
    "track_id": 238,
    "start_on_left": true,
    "restart_on_left": true
  },
  {
    "track_dirpath": "monza\\full",
    "comment": "manual override",
    "track_id": 239,
    "start_on_left": false,
    "restart_on_left": true
  },
  {
    "track_dirpath": "monza\\historic",
    "track_id": 240,
    "start_on_left": true,
    "restart_on_left": true
  },
  {
    "track_dirpath": "monza\\junior",
    "track_id": 241,
    "start_on_left": true,
    "restart_on_left": true
  },
  {
    "track_dirpath": "monza\\nochicane",
    "track_id": 242,
    "start_on_left": true,
    "restart_on_left": true
  },
  {
    "track_dirpath": "monza\\oval",
    "track_id": 243,
    "start_on_left": false,
    "restart_on_left": false
  },
  {
    "track_dirpath": "monza\\gpsecondchicane",
    "track_id": 244,
    "start_on_left": true,
    "restart_on_left": true
  },
  {
    "track_dirpath": "monza\\ovalleft",
    "track_id": 245,
    "start_on_left": false,
    "restart_on_left": false
  },
  {
    "track_dirpath": "monza\\historicsecondchicane",
    "track_id": 246,
    "start_on_left": true,
    "restart_on_left": true
  },
  {
    "track_dirpath": "monza\\combinedchicanes",
    "track_id": 247,
    "start_on_left": true,
    "restart_on_left": true
  },
  {
    "track_dirpath": "fiveflags",
    "track_id": 248,
    "start_on_left": true,
    "restart_on_left": true
  },
  {
    "track_dirpath": "nurburgring\\nordschleife",
    "track_id": 249,
    "start_on_left": false,
    "restart_on_left": false
  },
  {
    "track_dirpath": "nurburgring\\gp",
    "track_id": 250,
    "start_on_left": false,
    "restart_on_left": false
  },
  {
    "track_dirpath": "nurburgring\\combined",
    "track_id": 252,
    "start_on_left": false,
    "restart_on_left": false
  },
  {
    "track_dirpath": "nurburgring\\nordschleifetourist",
    "track_id": 253,
    "start_on_left": false,
    "restart_on_left": false
  },
  {
    "track_dirpath": "nurburgring\\gpnochicane",
    "track_id": 255,
    "start_on_left": false,
    "restart_on_left": false
  },
  {
    "track_dirpath": "southernnational",
    "track_id": 256,
    "start_on_left": true,
    "restart_on_left": true
  },
  {
    "track_dirpath": "nurburgring\\gpshort",
    "track_id": 257,
    "start_on_left": false,
    "restart_on_left": false
  },
  {
    "track_dirpath": "nurburgring\\sprintchicane",
    "track_id": 259,
    "start_on_left": false,
    "restart_on_left": false
  },
  {
    "track_dirpath": "nurburgring\\sprintshort",
    "track_id": 260,
    "start_on_left": false,
    "restart_on_left": false
  },
  {
    "track_dirpath": "nurburgring\\mullenbachschleife",
    "track_id": 261,
    "start_on_left": false,
    "restart_on_left": false
  },
  {
    "track_dirpath": "nurburgring\\combinedshortb",
    "track_id": 262,
    "start_on_left": false,
    "restart_on_left": false
  },
  {
    "track_dirpath": "nurburgring\\combinedshorta",
    "track_id": 263,
    "start_on_left": false,
    "restart_on_left": false
  },
  {
    "track_dirpath": "nurburgring\\combinedlong",
    "track_id": 264,
    "start_on_left": false,
    "restart_on_left": false
  },
  {
    "track_dirpath": "imola\\gp",
    "track_id": 266,
    "start_on_left": true,
    "restart_on_left": true
  },
  {
    "track_dirpath": "imola\\moto",
    "track_id": 267,
    "start_on_left": true,
    "restart_on_left": true
  },
  {
    "track_dirpath": "lemans\\full",
    "track_id": 268,
    "comment": "manual override",
    "start_on_left": false,
    "restart_on_left": false
  },
  {
    "track_dirpath": "lemans\\nochicane",
    "track_id": 269,
    "comment": "manual override",
    "start_on_left": false,
    "restart_on_left": false
  },
  {
    "track_dirpath": "bullring",
    "track_id": 271,
    "start_on_left": true,
    "restart_on_left": true
  },
  {
    "track_dirpath": "eldora",
    "track_id": 273,
    "start_on_left": true,
    "restart_on_left": true
  },
  {
    "track_dirpath": "williamsgrove",
    "track_id": 274,
    "start_on_left": true,
    "restart_on_left": true
  },
  {
    "track_dirpath": "lakeland\\dirt",
    "track_id": 275,
    "start_on_left": true,
    "restart_on_left": true
  },
  {
    "track_dirpath": "michigan\\2018",
    "track_id": 276,
    "start_on_left": true,
    "restart_on_left": true
  },
  {
    "track_dirpath": "pocono\\2016",
    "track_id": 277,
    "start_on_left": true,
    "restart_on_left": true
  },
  {
    "track_dirpath": "volusia",
    "track_id": 279,
    "start_on_left": true,
    "restart_on_left": true
  },
  {
    "track_dirpath": "myrtlebeach",
    "track_id": 286,
    "start_on_left": true,
    "restart_on_left": true
  },
  {
    "track_dirpath": "bristol\\dirt",
    "track_id": 287,
    "start_on_left": true,
    "restart_on_left": true
  },
  {
    "track_dirpath": "lanier\\dirt",
    "track_id": 288,
    "start_on_left": true,
    "restart_on_left": true
  },
  {
    "track_dirpath": "brandshatch\\rallycross",
    "track_id": 290,
    "start_on_left": true,
    "restart_on_left": true
  },
  {
    "track_dirpath": "daytona\\rallycross\\long",
    "track_id": 293,
    "start_on_left": true,
    "restart_on_left": true
  },
  {
    "track_dirpath": "iowa\\rallycross",
    "track_id": 295,
    "start_on_left": true,
    "restart_on_left": true
  },
  {
    "track_dirpath": "daytona\\rallycross\\short",
    "track_id": 296,
    "start_on_left": true,
    "restart_on_left": true
  },
  {
    "track_dirpath": "snetterton\\300",
    "track_id": 297,
    "comment": "manual override",
    "start_on_left": false,
    "restart_on_left": true
  },
  {
    "track_dirpath": "snetterton\\200",
    "track_id": 298,
    "comment": "manual override",
    "start_on_left": false,
    "restart_on_left": true
  },
  {
    "track_dirpath": "snetterton\\100",
    "track_id": 299,
    "comment": "manual override",
    "start_on_left": false,
    "restart_on_left": true
  },
  {
    "track_dirpath": "limaland",
    "track_id": 303,
    "start_on_left": true,
    "restart_on_left": true
  },
  {
    "track_dirpath": "irp\\rallycross",
    "track_id": 304,
    "start_on_left": true,
    "restart_on_left": true
  },
  {
    "track_dirpath": "knoxville",
    "track_id": 305,
    "start_on_left": true,
    "restart_on_left": true
  },
  {
    "track_dirpath": "phoenix\\rallycross",
    "track_id": 306,
    "start_on_left": true,
    "restart_on_left": true
  },
  {
    "track_dirpath": "sonoma\\rallycross",
    "track_id": 312,
    "start_on_left": true,
    "restart_on_left": true
  },
  {
    "track_dirpath": "charlottedirt",
    "track_id": 314,
    "start_on_left": true,
    "restart_on_left": true
  },
  {
    "track_dirpath": "belleisle",
    "track_id": 319,
    "start_on_left": true,
    "restart_on_left": true
  },
  {
    "track_dirpath": "kokomo",
    "track_id": 320,
    "start_on_left": true,
    "restart_on_left": true
  },
  {
    "track_dirpath": "atlanta\\rallycross\\short",
    "track_id": 322,
    "start_on_left": false,
    "restart_on_left": false
  },
  {
    "track_dirpath": "atlanta\\rallycross\\long",
    "track_id": 323,
    "start_on_left": false,
    "restart_on_left": false
  },
  {
    "track_dirpath": "tsukuba\\2kfull",
    "track_id": 324,
    "start_on_left": true,
    "restart_on_left": true
  },
  {
    "track_dirpath": "tsukuba\\2kchicane",
    "track_id": 325,
    "start_on_left": true,
    "restart_on_left": true
  },
  {
    "track_dirpath": "tsukuba\\2kshort",
    "track_id": 326,
    "start_on_left": true,
    "restart_on_left": true
  },
  {
    "track_dirpath": "tsukuba\\1kfull",
    "track_id": 327,
    "start_on_left": false,
    "restart_on_left": false
  },
  {
    "track_dirpath": "tsukuba\\1kouter",
    "track_id": 328,
    "start_on_left": false,
    "restart_on_left": false
  },
  {
    "track_dirpath": "tsukuba\\1kchicane",
    "track_id": 329,
    "start_on_left": false,
    "restart_on_left": false
  },
  {
    "track_dirpath": "charlotte\\2018\\roval",
    "track_id": 330,
    "start_on_left": true,
    "restart_on_left": true
  },
  {
    "track_dirpath": "chilibowl",
    "track_id": 331,
    "start_on_left": true,
    "restart_on_left": true
  },
  {
    "track_dirpath": "wildwest\\full",
    "track_id": 332,
    "start_on_left": true,
    "restart_on_left": true
  },
  {
    "track_dirpath": "tsukuba\\1kfullreverse",
    "track_id": 333,
    "start_on_left": true,
    "restart_on_left": true
  },
  {
    "track_dirpath": "wildhorse",
    "track_id": 334,
    "start_on_left": true,
    "restart_on_left": true
  },
  {
    "track_dirpath": "charlotte\\2018\\legendsoval",
    "track_id": 335,
    "start_on_left": true,
    "restart_on_left": true
  },
  {
    "track_dirpath": "charlotte\\2018\\legendsrclong",
    "track_id": 336,
    "start_on_left": false,
    "restart_on_left": false
  },
  {
    "track_dirpath": "charlotte\\2018\\legendsrcmed",
    "track_id": 337,
    "start_on_left": false,
    "restart_on_left": false
  },
  {
    "track_dirpath": "charlotte\\2018\\legendsrcshort",
    "track_id": 338,
    "start_on_left": false,
    "restart_on_left": false
  },
  {
    "track_dirpath": "charlotte\\2018\\oval",
    "track_id": 339,
    "start_on_left": true,
    "restart_on_left": true
  },
  {
    "track_dirpath": "charlotte\\2018\\rovallong",
    "track_id": 340,
    "start_on_left": true,
    "restart_on_left": true
  },
  {
    "track_dirpath": "silverstone\\2019\\gp",
    "track_id": 341,
    "start_on_left": false,
    "restart_on_left": false
  },
  {
    "track_dirpath": "silverstone\\2019\\international",
    "track_id": 342,
    "start_on_left": false,
    "restart_on_left": false
  },
  {
    "track_dirpath": "silverstone\\2019\\national",
    "track_id": 343,
    "start_on_left": false,
    "restart_on_left": false
  },
  {
    "track_dirpath": "fairbury",
    "track_id": 344,
    "start_on_left": true,
    "restart_on_left": true
  },
  {
    "track_dirpath": "barcelona\\gp",
    "track_id": 345,
    "start_on_left": true,
    "restart_on_left": true
  },
  {
    "track_dirpath": "barcelona\\national",
    "track_id": 346,
    "start_on_left": true,
    "restart_on_left": true
  },
  {
    "track_dirpath": "barcelona\\club",
    "track_id": 347,
    "start_on_left": true,
    "restart_on_left": true
  },
  {
    "track_dirpath": "barcelona\\moto",
    "track_id": 348,
    "start_on_left": true,
    "restart_on_left": true
  },
  {
    "track_dirpath": "barcelona\\historic",
    "track_id": 349,
    "start_on_left": true,
    "restart_on_left": true
  },
  {
    "track_dirpath": "charlotte\\2018\\2019\\roval",
    "track_id": 350,
    "start_on_left": true,
    "restart_on_left": true
  },
  {
    "track_dirpath": "lernerville",
    "track_id": 351,
    "start_on_left": true,
    "restart_on_left": true
  },
  {
    "track_dirpath": "limerock\\2019\\classic",
    "track_id": 352,
    "start_on_left": false,
    "restart_on_left": false
  },
  {
    "track_dirpath": "limerock\\2019\\gp",
    "track_id": 353,
    "start_on_left": false,
    "restart_on_left": false
  },
  {
    "track_dirpath": "limerock\\2019\\chicanes",
    "track_id": 354,
    "start_on_left": false,
    "restart_on_left": false
  },
  {
    "track_dirpath": "limerock\\2019\\chicanewestb",
    "track_id": 355,
    "start_on_left": false,
    "restart_on_left": false
  },
  {
    "track_dirpath": "texas\\2020\\oval",
    "track_id": 357,
    "start_on_left": true,
    "restart_on_left": true
  },
  {
    "track_dirpath": "lankebanen\\hellrx",
    "track_id": 358,
    "start_on_left": false,
    "restart_on_left": false
  },
  {
    "track_dirpath": "lankebanen\\club",
    "track_id": 359,
    "start_on_left": false,
    "restart_on_left": false
  },
  {
    "track_dirpath": "lankebanen\\rallyshort",
    "track_id": 360,
    "start_on_left": false,
    "restart_on_left": false
  },
  {
    "track_dirpath": "lankebanen\\road\\roadshort",
    "track_id": 361,
    "start_on_left": false,
    "restart_on_left": false
  },
  {
    "track_dirpath": "homestead\\ovalindy",
    "track_id": 362,
    "start_on_left": true,
    "restart_on_left": false
  },
  {
    "track_dirpath": "lankebanen\\road\\roadlong",
    "track_id": 363,
    "start_on_left": false,
    "restart_on_left": false
  },
  {
    "track_dirpath": "texas\\2020\\legendsoval",
    "track_id": 364,
    "start_on_left": true,
    "restart_on_left": true
  },
  {
    "track_dirpath": "bristol\\fullpit",
    "track_id": 365,
    "start_on_left": true,
    "restart_on_left": true
  },
  {
    "track_dirpath": "northwilkesboro",
    "track_id": 366,
    "start_on_left": true,
    "restart_on_left": true
  },
  {
    "track_dirpath": "kentucky\\2020\\oval",
    "track_id": 371,
    "start_on_left": true,
    "restart_on_left": true
  },
  {
    "track_dirpath": "weedsport",
    "track_id": 373,
    "start_on_left": true,
    "restart_on_left": true
  },
  {
    "track_dirpath": "nashville\\oval",
    "track_id": 374,
    "start_on_left": true,
    "restart_on_left": true
  },
  {
    "track_dirpath": "nashville\\mini",
    "track_id": 380,
    "start_on_left": true,
    "restart_on_left": true
  },
  {
    "track_dirpath": "daytona\\2011\\roadnascar2020",
    "track_id": 381,
    "start_on_left": true,
    "restart_on_left": false
  },
  {
    "track_dirpath": "crandon\\full",
    "track_id": 382,
    "start_on_left": false,
    "restart_on_left": false
  },
  {
    "track_dirpath": "crandon\\short",
    "track_id": 383,
    "start_on_left": false,
    "restart_on_left": false
  },
  {
    "track_dirpath": "iracingss",
    "track_id": 384,
    "start_on_left": true,
    "restart_on_left": true
  },
  {
    "track_dirpath": "charlotte\\2018\\2019\\rallycrosslong",
    "track_id": 385,
    "start_on_left": true,
    "restart_on_left": true
  },
  {
    "track_dirpath": "barcelona\\rallycross",
    "track_id": 386,
    "start_on_left": true,
    "restart_on_left": true
  },
  {
    "track_dirpath": "cedarlake",
    "track_id": 387,
    "start_on_left": true,
    "restart_on_left": true
  },
  {
    "track_dirpath": "irwindale\\figureeightjump",
    "track_id": 388,
    "start_on_left": true,
    "restart_on_left": true
  },
  {
    "track_dirpath": "hockenheim\\gp",
    "track_id": 390,
    "start_on_left": true,
    "restart_on_left": true
  },
  {
    "track_dirpath": "hockenheim\\nationala",
    "track_id": 391,
    "start_on_left": true,
    "restart_on_left": true
  },
  {
    "track_dirpath": "hockenheim\\nationalb",
    "track_id": 392,
    "start_on_left": true,
    "restart_on_left": true
  },
  {
    "track_dirpath": "hockenheim\\shorta",
    "track_id": 393,
    "start_on_left": true,
    "restart_on_left": true
  },
  {
    "track_dirpath": "hockenheim\\shortb",
    "track_id": 394,
    "start_on_left": true,
    "restart_on_left": true
  },
  {
    "track_dirpath": "hockenheim\\outer",
    "track_id": 395,
    "start_on_left": true,
    "restart_on_left": true
  },
  {
    "track_dirpath": "barkriver",
    "track_id": 396,
    "start_on_left": true,
    "restart_on_left": true
  },
  {
    "track_dirpath": "sonoma\\indycar",
    "track_id": 397,
    "start_on_left": true,
    "restart_on_left": true
  },
  {
    "track_dirpath": "mtwashington\\climb",
    "track_id": 398,
    "start_on_left": false,
    "restart_on_left": false
  },
  {
    "track_dirpath": "mtwashington\\reverse",
    "track_id": 399,
    "start_on_left": false,
    "restart_on_left": false
  },
  {
    "track_dirpath": "nashvilless",
    "track_id": 400,
    "start_on_left": true,
    "restart_on_left": true
  },
  {
    "track_dirpath": "spielberg\\gp",
    "track_id": 403,
    "start_on_left": true,
    "restart_on_left": true
  },
  {
    "track_dirpath": "spielberg\\national",
    "track_id": 404,
    "start_on_left": true,
    "restart_on_left": true
  },
  {
    "track_dirpath": "chicago",
    "track_id": 405,
    "start_on_left": false,
    "restart_on_left": false
  },
  {
    "track_dirpath": "spielberg\\north",
    "track_id": 407,
    "start_on_left": true,
    "restart_on_left": true
  },
  {
    "track_dirpath": "hungaroring",
    "track_id": 413,
    "start_on_left": false,
    "restart_on_left": false
  },
  {
    "track_dirpath": "hickory",
    "track_id": 414,
    "start_on_left": true,
    "restart_on_left": true
  },
  {
    "track_dirpath": "phoenix\\2021\\oval",
    "track_id": 418,
    "start_on_left": true,
    "restart_on_left": true
  },
  {
    "track_dirpath": "phoenix\\2021\\ovalopen",
    "track_id": 419,
    "start_on_left": true,
    "restart_on_left": true
  },
  {
    "track_dirpath": "knockhill\\international",
    "track_id": 423,
    "start_on_left": false,
    "restart_on_left": false
  },
  {
    "track_dirpath": "knockhill\\internationalrev",
    "track_id": 424,
    "start_on_left": false,
    "restart_on_left": false
  },
  {
    "track_dirpath": "knockhill\\national",
    "track_id": 425,
    "start_on_left": false,
    "restart_on_left": false
  },
  {
    "track_dirpath": "knockhill\\nationalrev",
    "track_id": 426,
    "start_on_left": false,
    "restart_on_left": false
  },
  {
    "track_dirpath": "knockhill\\rallycross",
    "track_id": 427,
    "start_on_left": false,
    "restart_on_left": false
  },
  {
    "track_dirpath": "hockenheim\\pec\\peceast",
    "track_id": 428,
    "start_on_left": true,
    "restart_on_left": true
  },
  {
    "track_dirpath": "hockenheim\\pec\\pecouter",
    "track_id": 429,
    "start_on_left": true,
    "restart_on_left": true
  },
  {
    "track_dirpath": "hockenheim\\pec\\pecwest",
    "track_id": 430,
    "start_on_left": true,
    "restart_on_left": true
  },
  {
    "track_dirpath": "hockenheim\\pec\\pechandling",
    "track_id": 431,
    "start_on_left": true,
    "restart_on_left": true
  },
  {
    "track_dirpath": "watkinsglen\\2021\\classic",
    "track_id": 432,
    "start_on_left": false,
    "restart_on_left": false
  },
  {
    "track_dirpath": "watkinsglen\\2021\\cupcircuit",
    "track_id": 433,
    "start_on_left": false,
    "restart_on_left": false
  },
  {
    "track_dirpath": "watkinsglen\\2021\\fullcourse",
    "track_id": 434,
    "start_on_left": false,
    "restart_on_left": false
  },
  {
    "track_dirpath": "watkinsglen\\2021\\fullnoloop",
    "track_id": 435,
    "start_on_left": false,
    "restart_on_left": false
  },
  {
    "track_dirpath": "knockhill\\trioval",
    "track_id": 436,
    "start_on_left": false,
    "restart_on_left": false
  },
  {
    "track_dirpath": "lacoliseum",
    "track_id": 437,
    "start_on_left": true,
    "restart_on_left": true
  },
  {
    "track_dirpath": "pevely",
    "track_id": 438,
    "start_on_left": true,
    "restart_on_left": true
  },
  {
    "track_dirpath": "winton\\national",
    "track_id": 439,
    "start_on_left": false,
    "restart_on_left": false
  },
  {
    "track_dirpath": "winton\\club",
    "track_id": 440,
    "start_on_left": false,
    "restart_on_left": false
  },
  {
    "track_dirpath": "bristol\\dirt\\2022",
    "track_id": 442,
    "start_on_left": true,
    "restart_on_left": true
  },
  {
    "track_dirpath": "sandown",
    "track_id": 443,
    "start_on_left": true,
    "restart_on_left": true
  },
  {
    "track_dirpath": "fuji\\gp",
    "track_id": 444,
    "start_on_left": true,
    "restart_on_left": true
  },
  {
    "track_dirpath": "fuji\\nochicane",
    "track_id": 445,
    "start_on_left": true,
    "restart_on_left": true
  },
  {
    "track_dirpath": "portroyal",
    "track_id": 446,
    "start_on_left": true,
    "restart_on_left": true
  },
  {
    "track_dirpath": "atlanta\\2022\\oval",
    "track_id": 447,
    "start_on_left": true,
    "restart_on_left": true
  },
  {
    "track_dirpath": "indianapolis\\2022\\road",
    "track_id": 448,
    "start_on_left": false,
    "restart_on_left": false
  },
  {
    "track_dirpath": "oschersleben\\gp",
    "track_id": 449,
    "comment": "manual override",
    "start_on_left": true,
    "restart_on_left": false
  },
  {
    "track_dirpath": "rudskogen",
    "track_id": 451,
    "start_on_left": true,
    "restart_on_left": true
  },
  {
    "track_dirpath": "wheatland",
    "track_id": 452,
    "start_on_left": true,
    "restart_on_left": true
  },
  {
    "track_dirpath": "indianapolis\\2022\\oval",
    "track_id": 453,
    "start_on_left": true,
    "restart_on_left": true
  },
  {
    "track_dirpath": "oschersleben\\alt",
    "track_id": 454,
    "comment": "manual override",
    "start_on_left": true,
    "restart_on_left": false
  },
  {
    "track_dirpath": "oschersleben\\bcourse",
    "track_id": 455,
    "comment": "manual override",
    "start_on_left": true,
    "restart_on_left": false
  },
  {
    "track_dirpath": "oschersleben\\ccourse",
    "track_id": 456,
    "comment": "manual override",
    "start_on_left": true,
    "restart_on_left": false
  },
  {
    "track_dirpath": "lincoln",
    "track_id": 462,
    "start_on_left": false,
    "restart_on_left": false
  },
  {
    "track_dirpath": "magnycours\\gp",
    "track_id": 463,
    "start_on_left": false,
    "restart_on_left": false
  },
  {
    "track_dirpath": "virginia\\2022\\full",
    "track_id": 465,
    "start_on_left": false,
    "restart_on_left": false
  },
  {
    "track_dirpath": "virginia\\2022\\grand",
    "track_id": 466,
    "start_on_left": false,
    "restart_on_left": false
  },
  {
    "track_dirpath": "virginia\\2022\\north",
    "track_id": 467,
    "start_on_left": false,
    "restart_on_left": false
  },
  {
    "track_dirpath": "virginia\\2022\\south",
    "track_id": 468,
    "start_on_left": false,
    "restart_on_left": false
  },
  {
    "track_dirpath": "virginia\\2022\\patriot",
    "track_id": 469,
    "start_on_left": false,
    "restart_on_left": false
  },
  {
    "track_dirpath": "daytona\\rallycross\\long\\nojoker",
    "track_id": 470,
    "start_on_left": true,
    "restart_on_left": true
  },
  {
    "track_dirpath": "daytona\\rallycross\\short\\nojoker",
    "track_id": 471,
    "start_on_left": true,
    "restart_on_left": true
  },
  {
    "track_dirpath": "phoenix\\rallycross\\nojoker",
    "track_id": 472,
    "start_on_left": true,
    "restart_on_left": true
  },
  {
    "track_dirpath": "jerez\\gp",
    "track_id": 473,
    "start_on_left": false,
    "restart_on_left": false
  },
  {
    "track_dirpath": "jerez\\moto",
    "track_id": 474,
    "start_on_left": false,
    "restart_on_left": false
  },
  {
    "track_dirpath": "aragon\\gp",
    "track_id": 475,
    "start_on_left": false,
    "restart_on_left": false
  },
  {
    "track_dirpath": "aragon\\national",
    "track_id": 476,
    "start_on_left": false,
    "restart_on_left": false
  },
  {
    "track_dirpath": "aragon\\west",
    "track_id": 477,
    "start_on_left": false,
    "restart_on_left": false
  },
  {
    "track_dirpath": "aragon\\moto",
    "track_id": 478,
    "comment": "manual override",
    "start_on_left": true,
    "restart_on_left": false
  },
  {
    "track_dirpath": "aragon\\nationalmoto",
    "track_id": 479,
    "start_on_left": false,
    "restart_on_left": false
  },
  {
    "track_dirpath": "aragon\\outer",
    "track_id": 480,
    "start_on_left": false,
    "restart_on_left": false
  },
  {
    "track_dirpath": "willow\\international",
    "track_id": 481,
    "start_on_left": false,
    "restart_on_left": false
  },
  {
    "track_dirpath": "aragon\\tc",
    "track_id": 482,
    "start_on_left": false,
    "restart_on_left": false
  },
  {
    "track_dirpath": "chicago\\2023",
    "track_id": 483,
    "start_on_left": false,
    "restart_on_left": false
  },
  {
    "track_dirpath": "zandvoort\\2023\\gp",
    "track_id": 485,
    "start_on_left": false,
    "restart_on_left": false
  },
  {
    "track_dirpath": "zandvoort\\2023\\gpchicane",
    "track_id": 486,
    "start_on_left": false,
    "restart_on_left": false
  },
  {
    "track_dirpath": "zandvoort\\2023\\nationaal",
    "track_id": 487,
    "start_on_left": false,
    "restart_on_left": false
  },
  {
    "track_dirpath": "zandvoort\\2023\\oostelijk",
    "track_id": 488,
    "start_on_left": false,
    "restart_on_left": false
  },
  {
    "track_dirpath": "ledenon",
    "track_id": 489,
    "comment": "manual override",
    "start_on_left": true,
    "restart_on_left": true
  },
  {
    "track_dirpath": "kern\\oval",
    "track_id": 493,
    "start_on_left": true,
    "restart_on_left": true
  },
  {
    "track_dirpath": "kern\\dirt",
    "track_id": 494,
    "start_on_left": true,
    "restart_on_left": true
  },
  {
    "track_dirpath": "kern\\legends",
    "track_id": 496,
    "start_on_left": true,
    "restart_on_left": true
  },
  {
    "track_dirpath": "kern\\dirtmini",
    "track_id": 497,
    "start_on_left": true,
    "restart_on_left": true
  },
  {
    "track_dirpath": "mugello\\gp",
    "track_id": 498,
    "start_on_left": false,
    "restart_on_left": false
  },
  {
    "track_dirpath": "mugello\\short",
    "track_id": 499,
    "start_on_left": false,
    "restart_on_left": false
  },
  {
    "track_dirpath": "slinger\\oval",
    "track_id": 500,
    "start_on_left": true,
    "restart_on_left": true
  },
  {
    "track_dirpath": "misano\\gp",
    "track_id": 501,
    "start_on_left": false,
    "restart_on_left": false
  },
  {
    "track_dirpath": "misano\\gp2007",
    "track_id": 502,
    "start_on_left": false,
    "restart_on_left": false
  },
  {
    "track_dirpath": "misano\\historicgp",
    "track_id": 503,
    "start_on_left": false,
    "restart_on_left": false
  },
  {
    "track_dirpath": "misano\\club",
    "track_id": 504,
    "start_on_left": true,
    "restart_on_left": true
  },
  {
    "track_dirpath": "misano\\truck",
    "track_id": 505,
    "start_on_left": false,
    "restart_on_left": false
  },
  {
    "track_dirpath": "slinger\\figure8",
    "track_id": 506,
    "start_on_left": true,
    "restart_on_left": true
  },
  {
    "track_dirpath": "limerock\\2019\\school",
    "track_id": 508,
    "start_on_left": false,
    "restart_on_left": false
  },
  {
    "track_dirpath": "algarve\\gp",
    "comment": "manual override",
    "track_id": 509,
    "start_on_left": false,
    "restart_on_left": false
  },
  {
    "track_dirpath": "algarve\\gpchicane",
    "track_id": 510,
    "start_on_left": true,
    "restart_on_left": true
  },
  {
    "track_dirpath": "algarve\\moto",
    "track_id": 511,
    "start_on_left": true,
    "restart_on_left": true
  },
  {
    "track_dirpath": "algarve\\motochicane",
    "track_id": 512,
    "start_on_left": true,
    "restart_on_left": true
  },
  {
    "track_dirpath": "millbridge",
    "track_id": 513,
    "start_on_left": true,
    "restart_on_left": true
  },
  {
    "track_dirpath": "kokomo\\tiresout",
    "track_id": 514,
    "start_on_left": true,
    "restart_on_left": true
  },
  {
    "track_dirpath": "navarra\\speedlong",
    "track_id": 515,
    "start_on_left": false,
    "restart_on_left": true
  },
  {
    "track_dirpath": "navarra\\speedmedium",
    "track_id": 516,
    "start_on_left": false,
    "restart_on_left": true
  },
  {
    "track_dirpath": "navarra\\speedshort",
    "track_id": 517,
    "start_on_left": true,
    "restart_on_left": true
  },
  {
    "track_dirpath": "oswego\\oval",
    "track_id": 518,
    "start_on_left": true,
    "restart_on_left": true
  },
  {
    "track_dirpath": "oswego\\mini",
    "track_id": 519,
    "start_on_left": true,
    "restart_on_left": true
  },
  {
    "track_dirpath": "sachsenring",
    "track_id": 521,
    "start_on_left": false,
    "restart_on_left": false
  },
  {
    "track_dirpath": "indianapolis\\2022\\ovalnascar",
    "track_id": 522,
    "start_on_left": true,
    "restart_on_left": true
  }
]
